[
    {
        "category":"hobi"
    },
    {
        "category":"kendaraan"
    },
    {
        "category":"baju"
    },
    {
        "category":"elektronik"
    },
    {
        "category":"kesehatan"
    }
]